<svg width="62" height="67" viewBox="0 0 62 67" fill="none" xmlns="http://www.w3.org/2000/svg">
<line x1="2.49634" y1="-2.49634" x2="31.15" y2="-2.49634" transform="matrix(0.885635 -0.464382 -0.404675 -0.914461 9.13281 22.8438)" stroke="#FFCB35" stroke-width="4.99268" stroke-linecap="round"/>
<line x1="2.49634" y1="-2.49634" x2="39.8329" y2="-2.49634" transform="matrix(0.994502 -0.104721 -0.0579748 -0.998318 13.2578 38.5)" stroke="#FFCB35" stroke-width="4.99268" stroke-linecap="round"/>
<line x1="2.49634" y1="-2.49634" x2="31.15" y2="-2.49634" transform="matrix(0.978828 0.204683 0.217358 -0.976092 11.25 54.8672)" stroke="#FFCB35" stroke-width="4.99268" stroke-linecap="round"/>
</svg>
