<svg width="73" height="68" viewBox="0 0 73 68" fill="none" xmlns="http://www.w3.org/2000/svg">
<circle cx="34" cy="34" r="34" fill="#4A3325" fill-opacity="0.92"/>
<path d="M25.3657 54.8696H28.7313V51.2287H25.3657V54.8696ZM33.7798 34.845C36.5733 34.845 38.8115 32.4056 38.8115 29.3837L38.8283 18.4612C38.8283 15.4394 36.5733 13 33.7798 13C30.9863 13 28.7313 15.4394 28.7313 18.4612V29.3837C28.7313 32.4056 30.9863 34.845 33.7798 34.845ZM32.097 54.8696H35.4626V51.2287H32.097V54.8696ZM38.8283 54.8696H42.194V51.2287H38.8283V54.8696ZM45.5596 29.3837H42.6988C42.6988 34.845 38.4244 38.6679 33.7798 38.6679C29.1352 38.6679 24.8608 34.845 24.8608 29.3837H22C22 35.5914 26.5773 40.7249 32.097 41.6169V47.5879H35.4626V41.6169C40.9823 40.7249 45.5596 35.5914 45.5596 29.3837Z" fill="#FF7521" fill-opacity="0.92"/>
<path d="M66.1765 14.3529L68.1118 10.0912L72.3529 8.17647L68.1118 6.26177L66.1765 2L64.2824 6.26177L60 8.17647L64.2824 10.0912L66.1765 14.3529Z" fill="#FFAD7A"/>
<path d="M48.1471 18.4699L49.1765 14.3523L53.2941 13.3228L49.1765 12.2934L48.1471 8.17578L47.1176 12.2934L43 13.3228L47.1176 14.3523L48.1471 18.4699Z" fill="#FFAD7A"/>
<circle cx="11.5" cy="55.5" r="3.5" fill="#FFAD7A"/>
</svg>
