<svg width="67" height="65" viewBox="0 0 67 65" fill="none" xmlns="http://www.w3.org/2000/svg">
<path d="M59.5481 31.2885L34.8458 7.00993C33.8577 6.03879 32.4853 5.44531 30.9758 5.44531H11.7628C8.74367 5.44531 6.27344 7.87317 6.27344 10.8405V29.7239C6.27344 31.2076 6.87727 32.5564 7.89281 33.5545L32.5951 57.8331C33.5832 58.8042 34.9556 59.3977 36.4652 59.3977C37.9747 59.3977 39.3471 58.8042 40.3352 57.8061L59.5481 38.9228C60.5636 37.9516 61.1675 36.6028 61.1675 35.1191C61.1675 33.6354 60.5362 32.2596 59.5481 31.2885ZM15.8799 18.9334C13.6018 18.9334 11.7628 17.126 11.7628 14.887C11.7628 12.648 13.6018 10.8405 15.8799 10.8405C18.158 10.8405 19.9969 12.648 19.9969 14.887C19.9969 17.126 18.158 18.9334 15.8799 18.9334Z" fill="#FFD96C"/>
</svg>
